[
    {
        "model": "clinic_api.department",
        "pk": 1,
        "fields": {
            "name": "ИС",
            "full_name": "Кафедра информационных систем",
            "faculty": 1
        }
    },
    {
        "model": "clinic_api.department",
        "pk": 2,
        "fields": {
            "name": "САПР",
            "full_name": "Кафедра систем автоматизированного проектирования",
            "faculty": 1
        }
    },
    {
        "model": "clinic_api.department",
        "pk": 3,
        "fields": {
            "name": "АПУ",
            "full_name": "Кафедра автоматики и процессов управления",
            "faculty": 1
        }
    },
    {
        "model": "clinic_api.department",
        "pk": 4,
        "fields": {
            "name": " МО ЭВМ",
            "full_name": "Кафедра математического обеспечения и применения ЭВМ",
            "faculty": 1
        }
    },
    {
        "model": "clinic_api.department",
        "pk": 5,
        "fields": {
            "name": "ИБ",
            "full_name": "Кафедра информационной безопасности",
            "faculty": 1
        }
    },
    {
        "model": "clinic_api.department",
        "pk": 6,
        "fields": {
            "name": "ВТ",
            "full_name": "Кафедра вычислительной техники",
            "faculty": 1
        }
    },
    {
        "model": "clinic_api.department",
        "pk": 7,
        "fields": {
            "name": "АМ",
            "full_name": "Кафедра алгоритмической математики",
            "faculty": 1
        }
    },
    {
        "model": "clinic_api.department",
        "pk": 8,
        "fields": {
            "name": "АИ",
            "full_name": "Базовая кафедра автоматизации исследований",
            "faculty": 1
        }
    },
    {
        "model": "clinic_api.department",
        "pk": 9,
        "fields": {
            "name": "БК ИИТ",
            "full_name": "Базовая кафедра интеллектуальных информационных технологий",
            "faculty": 1
        }
    },
    {
        "model": "clinic_api.department",
        "pk": 10,
        "fields": {
            "name": "Инновационный институт",
            "full_name": "Инновационный институт искусственного интеллекта, кибербезопасности и коммуникаций им. А.С. Попова",
            "faculty": 1
        }
    }
]






