[
    {
        "model": "clinic_api.group",
        "pk": 1,
        "fields": {
            "name": "7373",
            "department": 1
        }
    },
    {
        "model": "clinic_api.group",
        "pk": 2,
         "fields": {
            "name": "7374",
            "department": 1
        }
    },
    {
        "model": "clinic_api.group",
        "pk": 3,
         "fields": {
            "name": "7391",
            "department": 1
        }
    },
    {
        "model": "clinic_api.group",
        "pk": 4,
         "fields": {
            "name": "7395",
            "department": 1
        }
    }
]